<svg version="1.1" xmlns="http://www.w3.org/2000/svg" width="1024" height="1024" viewBox="0 0 1024 1024">
<path d="M234.614 356.562h-166.86c-11.518 0-20.858 9.338-20.858 20.858v625.722c0 11.518 9.338 20.858 20.858 20.858h166.86c11.518 0 20.858-9.338 20.858-20.858v-625.722c-0.002-11.518-9.34-20.858-20.858-20.858zM213.756 982.284h-125.144v-584.008h125.144v584.008z M167.67 904.47c-1.874-1.884-4.166-3.34-6.67-4.39-7.72-3.126-17.1-1.456-22.732 4.39-2.088 2.078-3.554 4.166-4.592 6.874-1.036 2.506-1.67 5.214-1.67 7.934 0 5.418 2.292 10.846 6.262 14.808 3.748 3.748 9.176 6.050 14.594 6.050 5.632 0 10.846-2.302 14.808-6.050 1.050-1.048 1.884-2.088 2.506-3.126 0.834-1.252 1.456-2.504 2.090-3.758 0.416-1.252 0.832-2.506 1.036-3.758 0.418-1.456 0.418-2.912 0.418-4.166-0.002-5.43-2.088-10.848-6.050-14.808z M948.56 566.952c12.458-19.208 34.902-61.412 26.836-106.294-5.904-32.866-26.384-59.8-60.862-80.484-3.246-1.946-6.956-2.754-10.734-2.754h-157.63c24.858-73 76.474-256.874-15.338-348.684-3.78-3.768-37.936-36.762-73.552-26.904-21.764 6.030-36.86 25.264-44.862 57.284-0.532 2.138-0.726 4.32-0.574 6.52 0.194 2.74 15.116 275.422-297.99 353.698-9.278 2.322-16.672 10.65-16.672 20.224v479.72c0 9.452 7.23 17.72 16.356 20.154 8.566 2.282 144.798 37.794 297.688 37.794 80.232 0 165.406-9.788 239.11-39.292 18.264-9.136 46.846-39.536 35.786-92.646 8.596-6.192 19.59-15.532 29.092-28.21 16.316-21.744 30.886-56.594 12.97-102.75 22.368-29.166 45.888-84.764 20.376-147.376zM908.376 551.676c-5.084 6.344-6.012 15.072-2.376 22.354 34.23 68.458-14.91 119.848-16.946 121.926-6.344 6.344-7.924 16.040-3.91 24.076 31.166 62.318-25.866 93.818-32.384 97.158-9.278 4.644-13.742 15.408-10.462 25.256 13.474 40.402-6.556 55.188-11.016 57.99-173.734 68.754-424.594 17.456-492.38 2.454v-447.272c312.86-86.262 314.714-353.986 313.838-389.174 3.83-13.882 9.716-22.976 15.216-24.514 8.442-2.362 24.802 7.842 33.164 16.082 93.164 93.176-3.416 329.442-4.404 331.814-2.678 6.436-1.9 14.006 1.97 19.8 3.87 5.804 10.432 9.506 17.398 9.506h181.728c21.010 15.644 32.97 29.652 36.49 48.94 7.488 40.984-25.634 83.216-25.926 83.604z"></path>
</svg>
