<svg version="1.1" xmlns="http://www.w3.org/2000/svg" width="1024" height="1024" viewBox="0 0 1024 1024">
<path d="M773.236 570.868c56.275-53.842 90.585-125.103 90.585-203.158 0-62.284-21.852-120.24-59.27-168.475 27.273-20.976 43.239-53.068 43.239-88.020 0-61.324-49.89-111.215-111.215-111.215-50.301 0-93.993 33.771-107.171 81.499-36.695-11.238-76.159-17.376-117.26-17.376s-80.567 6.138-117.262 17.376c-13.177-47.728-56.872-81.499-107.171-81.499-61.324 0-111.215 49.89-111.215 111.215 0 34.959 15.965 67.043 43.239 88.020-37.416 48.235-59.27 106.191-59.27 168.475 0 78.005 34.268 149.224 90.475 203.052-38.821 23.563-145.595 96.568-138.517 182.919 2.198 26.822 12.496 46.255 30.603 57.759 12.979 8.244 28.032 10.849 41.879 10.849 22.982 0 42.638-7.18 43.937-7.663 0.445-0.166 0.874-0.357 1.292-0.559 5.11 10.859 11.105 21.431 17.957 31.647-7.060 15.564-9.236 33.937-6.068 53.768 4.565 28.581 19.808 57.052 42.923 80.167s51.586 38.358 80.167 42.923c5.984 0.956 11.831 1.427 17.516 1.427 23.155 0 43.504-7.847 58.469-22.81 8.248-8.248 14.322-18.135 18.123-29.222 17.404 2.587 35.142 3.916 52.924 3.916s35.523-1.329 52.924-3.916c3.801 11.087 9.875 20.974 18.123 29.222 14.965 14.965 35.312 22.81 58.469 22.81 5.681 0 11.534-0.473 17.516-1.427 28.581-4.565 57.052-19.808 80.167-42.923s38.358-51.586 42.923-80.167c3.166-19.832 0.992-38.204-6.068-53.768 6.829-10.182 12.807-20.722 17.907-31.545 0.347 0.16 0.693 0.321 1.056 0.457 1.297 0.485 20.95 7.663 43.937 7.663 13.847 0 28.904-2.607 41.879-10.851 18.109-11.502 28.405-30.936 30.603-57.757 7.066-86.22-99.376-159.135-138.343-182.813zM736.577 30.058c44.75 0 81.157 36.406 81.157 81.157 0 26.014-12.149 49.84-32.795 65.128-7.937-8.416-16.38-16.46-25.297-24.094 14.326-8.084 24.028-23.443 24.028-41.033 0-25.966-21.125-47.091-47.091-47.091-24.137 0-44.079 18.257-46.77 41.684-10.324-5.238-20.974-10.043-31.934-14.368 8.943-35.831 41.32-61.382 78.702-61.382zM719.544 111.215c0-9.392 7.641-17.033 17.033-17.033s17.033 7.641 17.033 17.033-7.641 17.033-17.033 17.033-17.033-7.641-17.033-17.033zM206.555 111.215c0-44.75 36.406-81.157 81.157-81.157 37.382 0 69.757 25.551 78.706 61.382-10.959 4.324-21.61 9.13-31.934 14.368-2.693-23.427-22.636-41.684-46.772-41.684-25.966 0-47.091 21.125-47.091 47.091 0 17.59 9.701 32.95 24.026 41.033-8.917 7.635-17.359 15.68-25.297 24.094-20.648-15.285-32.795-39.107-32.795-65.128zM270.678 111.215c0-9.392 7.641-17.033 17.033-17.033s17.033 7.641 17.033 17.033-7.641 17.033-17.033 17.033-17.033-7.641-17.033-17.033zM190.524 367.71c0-150.823 144.278-273.528 321.621-273.528s321.621 122.705 321.621 273.528-144.278 273.528-321.621 273.528-321.621-122.705-321.621-273.528zM218.333 786.464c-0.369 0.138-37.5 13.382-59.19-0.397-9.871-6.27-15.356-17.668-16.762-34.843-3.479-42.442 32.737-83.635 63.733-110.716 8.555-7.474 17.201-14.31 25.405-20.389-15.127 30.92-22.96 64.202-22.96 98.492 0 22.984 3.633 45.692 10.637 67.582-0.289 0.086-0.577 0.164-0.862 0.271zM281.439 596.651c61.797 46.466 142.509 74.644 230.705 74.644 88.198 0 168.91-28.178 230.709-74.646 28 36.44 42.819 78.53 42.819 121.961 0 35.296-9.891 69.947-28.697 101.265-16.875-14.642-39.602-21.133-65.074-18.636-37.017-59.363-104.997-95.879-179.757-95.879-74.762 0-142.739 36.516-179.757 95.877-25.471-2.499-48.199 3.992-65.074 18.636-18.806-31.318-28.697-65.967-28.697-101.265 0-43.632 14.789-85.517 42.823-121.957zM306.199 958.395c-33.22-33.222-44.482-77.319-28.559-104.496 0.585-0.759 1.086-1.565 1.509-2.407 1.613-2.399 3.433-4.663 5.511-6.741 9.58-9.58 22.802-14.171 37.558-14.171 24.351 0 52.878 12.504 76.085 35.711 25.938 25.938 38.484 58.509 35.17 84.481-0.114 0.409-0.222 0.82-0.303 1.244-0.14 0.737-0.206 1.469-0.236 2.196-1.86 9.945-6.16 18.79-13.089 25.722-25.395 25.391-76.375 15.73-113.645-21.54zM463.895 942.274c-0.024-5.543-0.487-11.242-1.417-17.067-4.565-28.581-19.808-57.052-42.923-80.167-16.544-16.544-35.837-29.028-55.946-36.478 32.579-45.514 87.888-73.143 148.535-73.143s115.956 27.629 148.535 73.143c-20.109 7.45-39.402 19.932-55.946 36.478-23.115 23.115-38.358 51.586-42.923 80.167-0.93 5.825-1.393 11.524-1.417 17.067-31.735 4.677-64.763 4.677-96.498 0zM718.088 958.395c-37.27 37.268-88.25 46.933-113.643 21.542-6.911-6.911-11.206-15.726-13.073-25.637-0.028-0.757-0.094-1.519-0.24-2.284-0.090-0.471-0.206-0.93-0.337-1.381-3.252-25.95 9.3-58.449 35.19-84.341 37.268-37.268 88.248-46.935 113.643-21.542 2.108 2.108 3.952 4.409 5.581 6.847 0.397 0.773 0.856 1.519 1.393 2.222 15.991 27.17 4.739 71.322-28.513 104.574zM881.619 751.224c-1.405 17.141-6.867 28.525-16.7 34.803-18.121 11.572-48.938 4.228-59.25 0.437-0.198-0.074-0.401-0.124-0.601-0.19 7.022-21.916 10.663-44.652 10.663-67.665 0-34.132-7.895-67.462-23.030-98.444 43.532 32.583 92.927 82.167 88.92 131.059z M512.144 607.172c105.522 0 191.369-67.869 191.369-151.292s-85.848-151.292-191.369-151.292-191.369 67.869-191.369 151.292 85.848 151.292 191.369 151.292zM561.239 367.71c0 8.178 0 33.064-49.095 33.064s-49.095-24.886-49.095-33.064c0-7.895 0.012-31.363 44.205-32.97 1.629-0.036 3.25-0.094 4.889-0.094s3.262 0.056 4.889 0.094c44.191 1.607 44.205 25.074 44.205 32.97zM435.452 349.248c-1.613 5.687-2.461 11.847-2.461 18.462 0 35.344 23.676 57.936 64.124 62.324v33.861c0 18.231-14.833 33.064-33.064 33.064s-33.064-14.833-33.064-33.064c0-8.3-6.729-15.029-15.029-15.029s-15.029 6.729-15.029 15.029c0 34.805 28.317 63.122 63.122 63.122 19.251 0 36.504-8.673 48.093-22.305 11.588 13.632 28.842 22.305 48.093 22.305 34.805 0 63.122-28.317 63.122-63.122 0-8.3-6.729-15.029-15.029-15.029s-15.029 6.729-15.029 15.029c0 18.231-14.833 33.064-33.064 33.064s-33.064-14.833-33.064-33.064v-33.861c40.448-4.386 64.124-26.978 64.124-62.324 0-6.617-0.848-12.775-2.461-18.462 50.353 20.538 84.619 60.633 84.619 106.632 0 66.849-72.364 121.234-161.311 121.234s-161.311-54.385-161.311-121.234c0-45.999 34.264-86.094 84.619-106.632z M351.835 334.646c8.3 0 15.029-6.729 15.029-15.029v-16.031c0-8.3-6.729-15.029-15.029-15.029s-15.029 6.729-15.029 15.029v16.031c0 8.3 6.729 15.029 15.029 15.029z M672.454 334.646c8.3 0 15.029-6.729 15.029-15.029v-16.031c0-8.3-6.729-15.029-15.029-15.029s-15.029 6.729-15.029 15.029v16.031c0 8.3 6.729 15.029 15.029 15.029z"></path>
</svg>
